…
``` r
# load in the original penguins dataset
penguins <- read_csv(
  "https://bwu62.github.io/stat240-revamp/data/penguins.csv",
  show_col_types = FALSE
)
# print the first few rows of the data frame to check
# again this data frame is too wide, and some columns are cut off
print(penguins, n = 5)
```

```
## # A tibble: 344 × 8
##   species island    bill_length_mm bill_depth_mm flipper_length_mm body_mass_g
##   <chr>   <chr>              <dbl>         <dbl>             <dbl>       <dbl>
## 1 Adelie  Torgersen           39.1          18.7               181        3750
## 2 Adelie  Torgersen           39.5          17.4               186        3800
## 3 Adelie  Torgersen           40.3          18                 195        3250
## 4 Adelie  Torgersen           NA            NA                  NA          NA
## 5 Adelie  Torgersen           36.7          19.3               193        3450
## # ℹ 339 more rows
## # ℹ 2 more variables: sex <chr>, year <dbl>
```
…
### `select()`

`select()` is used to subset columns in a data frame and is often one of the first operations used after loading in a dataset (to remove columns unnecessary for your analysis).

It has a very flexible syntax: you can use subset either by numeric position, by name, by ranges, by exlusion, or even using special [selector functions](https://tidyselect.r-lib.org/reference/starts_with.html). It can also be used to reorder columns. Here are a few examples:


``` r
# select just species, sex, flipper length, and body mass
penguins %>%
  select(species, sex, flipper_length_mm, body_mass_g)
```

```
## # A tibble: 344 × 4
##   species sex    flipper_length_mm body_mass_g
##   <chr>   <chr>              <dbl>       <dbl>
## 1 Adelie  male                 181        3750
## 2 Adelie  female               186        3800
## 3 Adelie  female               195        3250
## 4 Adelie  <NA>                  NA          NA
## 5 Adelie  female               193        3450
## # ℹ 339 more rows
```

``` r
# note this is syntactically equivalent to the following:
select(penguins, species, sex, flipper_length_mm, body_mass_g)
```

```
## # A tibble: 344 × 4
##   species sex    flipper_length_mm body_mass_g
##   <chr>   <chr>              <dbl>       <dbl>
## 1 Adelie  male                 181        3750
## 2 Adelie  female               186        3800
## 3 Adelie  female               195        3250
## 4 Adelie  <NA>                  NA          NA
## 5 Adelie  female               193        3450
## # ℹ 339 more rows
```

``` r
# you can also select by position, or with a range, or both
# e.g. we can select the 1st, 3rd to 5th, and year columns:
penguins %>%
  select(1, 3:5, year)
```

```
## # A tibble: 344 × 5
##   species bill_length_mm bill_depth_mm flipper_length_mm  year
##   <chr>            <dbl>         <dbl>             <dbl> <dbl>
## 1 Adelie            39.1          18.7               181  2007
## 2 Adelie            39.5          17.4               186  2007
## 3 Adelie            40.3          18                 195  2007
## 4 Adelie            NA            NA                  NA  2007
## 5 Adelie            36.7          19.3               193  2007
## # ℹ 339 more rows
```

``` r
# you can also use ranges with names
# e.g. select from 1st to island, then body mass to last col
penguins %>%
  select(1:island, body_mass_g:last_col())
```

```
## # A tibble: 344 × 5
##   species island    body_mass_g sex     year
##   <chr>   <chr>           <dbl> <chr>  <dbl>
## 1 Adelie  Torgersen        3750 male    2007
## 2 Adelie  Torgersen        3800 female  2007
## 3 Adelie  Torgersen        3250 female  2007
## 4 Adelie  Torgersen          NA <NA>    2007
## 5 Adelie  Torgersen        3450 female  2007
## # ℹ 339 more rows
```

``` r
# you can also select by excluding specific columns with !
# e.g. select everything except island and everything after body mass
penguins %>%
  select(-island, -(body_mass_g:last_col()), body_mass_g)
```

```
## # A tibble: 344 × 5
##   species bill_length_mm bill_depth_mm flipper_length_mm body_mass_g
##   <chr>            <dbl>         <dbl>             <dbl>       <dbl>
## 1 Adelie            39.1          18.7               181        3750
## 2 Adelie            39.5          17.4               186        3800
## 3 Adelie            40.3          18                 195        3250
## 4 Adelie            NA            NA                  NA          NA
## 5 Adelie            36.7          19.3               193        3450
## # ℹ 339 more rows
```

``` r
# select with selector functions, see ?starts_with help page for details,
# you can also use & as AND, | as OR, ! as NOT during selection
# e.g. get cols that start with "s", or end with "mm" or "g",
#      but do NOT contain "length" anywhere in the name
penguins %>%
  select(
    (starts_with("s") | ends_with(c("mm", "g"))) & !contains("length")
  )
```

```
## # A tibble: 344 × 4
##   species sex    bill_depth_mm body_mass_g
##   <chr>   <chr>          <dbl>       <dbl>
## 1 Adelie  male            18.7        3750
## 2 Adelie  female          17.4        3800
## 3 Adelie  female          18          3250
## 4 Adelie  <NA>            NA            NA
## 5 Adelie  female          19.3        3450
## # ℹ 339 more rows
```

``` r
# notice in all examples above, columns are always returned in order
# select() can therefore also be used to reorder columns
# e.g. move year, island, species, sex cols in front of everything else
#      (here, everything() selects all the other cols in original order)
penguins %>%
  select(year, island, species, sex, everything())
```

```
## # A tibble: 344 × 8
##    year island    species sex    bill_length_mm bill_depth_mm flipper_length_mm
##   <dbl> <chr>     <chr>   <chr>           <dbl>         <dbl>             <dbl>
## 1  2007 Torgersen Adelie  male             39.1          18.7               181
## 2  2007 Torgersen Adelie  female           39.5          17.4               186
## 3  2007 Torgersen Adelie  female           40.3          18                 195
## 4  2007 Torgersen Adelie  <NA>             NA            NA                  NA
## 5  2007 Torgersen Adelie  female           36.7          19.3               193
## # ℹ 339 more rows
## # ℹ 1 more variable: body_mass_g <dbl>
```

:::{.note}
Here it's worth reminding that `df %>% select(...)` **does NOT modify the original input `df`**, instead it effectively makes a copy of `df` and runs on that instead. Example:

``` r
# show starting data frame
print(penguins)
```

```
## # A tibble: 344 × 8
##   species island    bill_length_mm bill_depth_mm flipper_length_mm body_mass_g
##   <chr>   <chr>              <dbl>         <dbl>             <dbl>       <dbl>
## 1 Adelie  Torgersen           39.1          18.7               181        3750
## 2 Adelie  Torgersen           39.5          17.4               186        3800
## 3 Adelie  Torgersen           40.3          18                 195        3250
## 4 Adelie  Torgersen           NA            NA                  NA          NA
## 5 Adelie  Torgersen           36.7          19.3               193        3450
## # ℹ 339 more rows
## # ℹ 2 more variables: sex <chr>, year <dbl>
```

``` r
# select a subset of columns
penguins %>% select(species, flipper_length_mm)
```

```
## # A tibble: 344 × 2
##   species flipper_length_mm
##   <chr>               <dbl>
## 1 Adelie                181
## 2 Adelie                186
## 3 Adelie                195
## 4 Adelie                 NA
## 5 Adelie                193
## # ℹ 339 more rows
```

``` r
# check original input is unchanged
print(penguins)
```

```
## # A tibble: 344 × 8
##   species island    bill_length_mm bill_depth_mm flipper_length_mm body_mass_g
##   <chr>   <chr>              <dbl>         <dbl>             <dbl>       <dbl>
## 1 Adelie  Torgersen           39.1          18.7               181        3750
## 2 Adelie  Torgersen           39.5          17.4               186        3800
## 3 Adelie  Torgersen           40.3          18                 195        3250
## 4 Adelie  Torgersen           NA            NA                  NA          NA
## 5 Adelie  Torgersen           36.7          19.3               193        3450
## # ℹ 339 more rows
## # ℹ 2 more variables: sex <chr>, year <dbl>
```
If you want to save the result of `df %>% select(...)` you must **manually save the output with `<-`**. In general, we always recommend saving to a NEW object instead of overwriting the original object because this is non-destructive (i.e. does not lose any data) and less likely to create code errors later on. It's also easier to debug.

``` r
# saving to a new object with a descriptive name is ALWAYS recommended!
penguins_fewcols <- penguins %>% select(species, flipper_length_mm)
print(penguins_fewcols)
```

```
## # A tibble: 344 × 2
##   species flipper_length_mm
##   <chr>               <dbl>
## 1 Adelie                181
## 2 Adelie                186
## 3 Adelie                195
## 4 Adelie                 NA
## 5 Adelie                193
## # ℹ 339 more rows
```

``` r
# overwriting the original input is STRONGLY discouraged
# because it's destructive and often causes problems later
penguins <- penguins %>% select(species, flipper_length_mm)
print(penguins)
```

```
## # A tibble: 344 × 2
##   species flipper_length_mm
##   <chr>               <dbl>
## 1 Adelie                181
## 2 Adelie                186
## 3 Adelie                195
## 4 Adelie                 NA
## 5 Adelie                193
## # ℹ 339 more rows
```
…
