…
### More practice!

Let's give the penguins dataset a rest and practice dplyr and grouping a bit more with a different dataset. The following chunk imports [`fertility.csv`](data/fertility.csv), the cleaned global fertility data set from [World Bank](https://data.worldbank.org/indicator/SP.DYN.TFRT.IN), giving the average number of births per woman for each year and country from 1960 to present. For the past few decades, global fertility has been [sharply declining](https://ourworldindata.org/un-population-2024-revision) for most countries. Many countries are now below the [replacement rate of 2.1](https://en.wikipedia.org/wiki/Sub-replacement_fertility), leading to widespread concerns of a population collapse in the latter part of the 21^st^ century.


``` r
fertility <- read_csv(
  "https://bwu62.github.io/stat240-revamp/data/fertility.csv",
  show_col_types = FALSE
)
fertility
```

```
# A tibble: 13,050 × 5
   country     region     income_group  year  rate
   <chr>       <chr>      <chr>        <dbl> <dbl>
 1 Afghanistan South Asia Low           1960  7.28
 2 Afghanistan South Asia Low           1961  7.28
 3 Afghanistan South Asia Low           1962  7.29
 4 Afghanistan South Asia Low           1963  7.30
 5 Afghanistan South Asia Low           1964  7.30
 6 Afghanistan South Asia Low           1965  7.30
 7 Afghanistan South Asia Low           1966  7.32
 8 Afghanistan South Asia Low           1967  7.34
 9 Afghanistan South Asia Low           1968  7.36
10 Afghanistan South Asia Low           1969  7.39
# ℹ 13,040 more rows
```
…
