Chapter 4 Data Frames | STAT 240 Revamp
…
## Rows: 71 Columns: 6
## ── Column specification ──────────────────────────────────────────────
## Delimiter: ","
## chr  (1): volcano
## dbl  (2): duration, vei
## lgl  (1): confirmed
## date (2): start, stop
## 
## ℹ Use `spec()` to retrieve the full column specification for this data.
## ℹ Specify the column types or set `show_col_types = FALSE` to quiet this message.

# print first few lines of result to check
eruptions_recent

## # A tibble: 71 × 6
##    volcano               start      stop       duration confirmed   vei
##    <chr>                 <date>     <date>        <dbl> <lgl>     <dbl>
##  1 Kilauea               2024-06-03 2024-06-03        0 TRUE         NA
##  2 Atka Volcanic Complex 2024-03-27 2024-03-27        0 TRUE         NA
##  3 Ahyi                  2024-01-01 2024-03-27       86 TRUE         NA
##  4 Kanaga                2023-12-18 2023-12-18        0 TRUE          1
##  5 Ruby                  2023-09-14 2023-09-15        1 TRUE          1
##  6 Shishaldin            2023-07-11 2023-11-03      115 TRUE          3
##  7 Mauna Loa             2022-11-27 2022-12-10       13 TRUE          0
##  8 Ahyi                  2022-11-18 2023-06-11      205 TRUE          1
##  9 Kilauea               2021-09-29 2023-09-16      717 TRUE          0
## 10 Pavlof                2021-08-05 2022-12-07      489 TRUE          2
## # ℹ 61 more rows
…
Here it is read in with the read_tsv() function. This time, to save space, I’ve disabled the diagnostic messages by setting show_col_types = FALSE and reduced the final print checking to 5 lines. Otherwise, you can see we have the exact same result.

# read in TSV file from link
eruptions_recent <- read_tsv(
  "https://bwu62.github.io/stat240-revamp/data/eruptions_recent.tsv",
  show_col_types = FALSE
)
# print first 5 lines instead of 10 to still check, but save space
print(eruptions_recent, n = 5)

## # A tibble: 71 × 6
##   volcano               start      stop       duration confirmed   vei
##   <chr>                 <date>     <date>        <dbl> <lgl>     <dbl>
## 1 Kilauea               2024-06-03 2024-06-03        0 TRUE         NA
## 2 Atka Volcanic Complex 2024-03-27 2024-03-27        0 TRUE         NA
## 3 Ahyi                  2024-01-01 2024-03-27       86 TRUE         NA
## 4 Kanaga                2023-12-18 2023-12-18        0 TRUE          1
## 5 Ruby                  2023-09-14 2023-09-15        1 TRUE          1
## # ℹ 66 more rows
…
# read in | delimited file from link
eruptions_recent <- read_delim(
  "https://bwu62.github.io/stat240-revamp/data/eruptions_recent.delim",
  delim = "|",
  show_col_types = FALSE
)
# print first 5 lines
print(eruptions_recent, n = 5)

## # A tibble: 71 × 6
##   volcano               start      stop       duration confirmed   vei
##   <chr>                 <date>     <date>        <dbl> <lgl>     <dbl>
## 1 Kilauea               2024-06-03 2024-06-03        0 TRUE         NA
## 2 Atka Volcanic Complex 2024-03-27 2024-03-27        0 TRUE         NA
## 3 Ahyi                  2024-01-01 2024-03-27       86 TRUE         NA
## 4 Kanaga                2023-12-18 2023-12-18        0 TRUE          1
## 5 Ruby                  2023-09-14 2023-09-15        1 TRUE          1
## # ℹ 66 more rows
…
# I already have the file downloaded to data/
# inside my current working directory
dir.exists("data/")

## [1] TRUE

file.exists("data/eruptions_recent.xlsx")

## [1] TRUE

eruptions_recent <- read_xlsx("data/eruptions_recent.xlsx")
# print first 5 lines
print(eruptions_recent, n = 5)

## # A tibble: 71 × 6
##   volcano       start               stop                duration confirmed   vei
##   <chr>         <dttm>              <dttm>                 <dbl> <chr>     <dbl>
## 1 Kilauea       2024-06-03 00:00:00 2024-06-03 00:00:00        0 TRUE         NA
## 2 Atka Volcani… 2024-03-27 00:00:00 2024-03-27 00:00:00        0 TRUE         NA
## 3 Ahyi          2024-01-01 00:00:00 2024-03-27 00:00:00       86 TRUE         NA
## 4 Kanaga        2023-12-18 00:00:00 2023-12-18 00:00:00        0 TRUE          1
## 5 Ruby          2023-09-14 00:00:00 2023-09-15 00:00:00        1 TRUE          1
## # ℹ 66 more rows
…
