A Datasets | STAT 240 Revamp
…
# eruptions_recent %>% as.data.frame %>% print(print.gap=2,width=1000,row.names=F,right=F) %>% capture.output() %>% 
#   str_replace("<NA>","NA  ") %>% str_replace("^ *",'"') %>% str_replace("( {2,})",'"\\1') %>% str_replace('"name"',"name  ") %>% write_lines(file="data/eruptions_recent.txt")

A.2.4 Inspect data

eruptions

## # A tibble: 1,278 × 10
##    volcano     start      start_error start_year stop       stop_error stop_year
##    <chr>       <date>           <dbl>      <dbl> <date>          <dbl>     <dbl>
##  1 Kīlauea     2024-06-03           0       2024 2024-06-03          0      2024
##  2 Atka Volca… 2024-03-27           0       2024 2024-03-27          0      2024
##  3 Ahyi        2024-01-01           0       2024 2024-03-27          0      2024
##  4 Kanaga      2023-12-18           0       2023 2023-12-18          0      2023
##  5 Ruby        2023-09-14           0       2023 2023-09-15          0      2023
##  6 Shishaldin  2023-07-11           1       2023 2023-11-03          0      2023
##  7 Mauna Loa   2022-11-27           0       2022 2022-12-10          0      2022
##  8 Ahyi        2022-11-18           1       2022 2023-06-11          0      2023
##  9 Kīlauea     2021-09-29           0       2021 2023-09-16          0      2023
## 10 Pavlof      2021-08-05           0       2021 2022-12-07          0      2022
## # ℹ 1,268 more rows
## # ℹ 3 more variables: duration <dbl>, confirmed <lgl>, vei <dbl>

eruptions_recent

## # A tibble: 73 × 6
##    volcano               start      stop       duration confirmed   vei
##    <chr>                 <date>     <date>        <dbl> <lgl>     <dbl>
##  1 Kīlauea               2024-06-03 2024-06-03        0 TRUE         NA
##  2 Atka Volcanic Complex 2024-03-27 2024-03-27        0 TRUE         NA
##  3 Ahyi                  2024-01-01 2024-03-27       86 TRUE         NA
##  4 Kanaga                2023-12-18 2023-12-18        0 TRUE          1
##  5 Ruby                  2023-09-14 2023-09-15        1 TRUE          1
##  6 Shishaldin            2023-07-11 2023-11-03      115 TRUE          3
##  7 Mauna Loa             2022-11-27 2022-12-10       13 TRUE          0
##  8 Ahyi                  2022-11-18 2023-06-11      205 TRUE          1
##  9 Kīlauea               2021-09-29 2023-09-16      717 TRUE          0
## 10 Pavlof                2021-08-05 2022-12-07      489 TRUE          2
## # ℹ 63 more rows
…
A.2.7 Write out volcanoes info

write_csv(volcanoes,"data/volcanoes.csv")

A.2.8 Inspect volcanoes info

volcanoes

## # A tibble: 125 × 9
##    volcano          region landform type  last_known_eruption latitude longitude
##    <chr>            <chr>  <chr>    <chr>               <dbl>    <dbl>     <dbl>
##  1 Kīlauea          Hawai… Shield   Shie…                2024     19.4     -155.
##  2 Atka Volcanic C… Aleut… Composi… Stra…                2024     52.3     -174.
##  3 Ahyi             Maria… Composi… Stra…                2024     20.4      145.
##  4 Kanaga           Aleut… Composi… Stra…                2023     51.9     -177.
##  5 Ruby             Maria… Composi… Stra…                2023     15.6      146.
##  6 Shishaldin       Aleut… Composi… Stra…                2023     54.8     -164.
##  7 Mauna Loa        Hawai… Shield   Shie…                2022     19.5     -156.
##  8 Pavlof           Aleut… Composi… Stra…                2022     55.4     -162.
##  9 Pagan            Maria… Composi… Stra…                2021     18.1      146.
## 10 Great Sitkin     Aleut… Composi… Stra…                2024     52.1     -176.
## # ℹ 115 more rows
## # ℹ 2 more variables: summit_ft <dbl>, underwater <lgl>

volcanoes_raw

## # A tibble: 125 × 9
##    name                  Country      `Volcanic Province` `Landform | Volc Type`
##    <chr>                 <chr>        <chr>               <chr>                 
##  1 Kīlauea               United Stat… Hawaiian-Emperor H… Shield | Shield       
##  2 Atka Volcanic Complex United Stat… Aleutian Ridge Vol… Composite | Stratovol…
##  3 Ahyi                  United Stat… Mariana Volcanic A… Composite | Stratovol…
##  4 Kanaga                United Stat… Aleutian Ridge Vol… Composite | Stratovol…
##  5 Ruby                  United Stat… Mariana Volcanic A… Composite | Stratovol…
##  6 Shishaldin            United Stat… Aleutian Ridge Vol… Composite | Stratovol…
##  7 Mauna Loa             United Stat… Hawaiian-Emperor H… Shield | Shield       
##  8 Pavlof                United Stat… Aleutian Ridge Vol… Composite | Stratovol…
##  9 Pagan                 United Stat… Mariana Volcanic A… Composite | Stratovol…
## 10 Great Sitkin          United Stat… Aleutian Ridge Vol… Composite | Stratovol…
## # ℹ 115 more rows
## # ℹ 5 more variables: `Last Known Eruption` <chr>, Latitude <chr>,
## #   Longitude <chr>, Summit <chr>, Elevation <chr>
…
