…
# get just subset for demo
eruptions_recent <- eruptions %>% 
  filter(start_error <= 30, start_year > 2000, confirmed) %>% 
  select(-contains("_"))

eruptions_recent
```

```
## # A tibble: 71 × 6
##    name                  start      stop       duration confirmed   vei
##    <chr>                 <date>     <date>        <dbl> <lgl>     <int>
##  1 Kilauea               2024-06-03 2024-06-03        0 TRUE         NA
##  2 Atka Volcanic Complex 2024-03-27 2024-03-27        0 TRUE         NA
##  3 Ahyi                  2024-01-01 2024-03-27       86 TRUE         NA
##  4 Kanaga                2023-12-18 2023-12-18        0 TRUE          1
##  5 Ruby                  2023-09-14 2023-09-15        1 TRUE          1
##  6 Shishaldin            2023-07-11 2023-11-03      115 TRUE          3
##  7 Mauna Loa             2022-11-27 2022-12-10       13 TRUE          0
##  8 Ahyi                  2022-11-18 2023-06-11      205 TRUE          1
##  9 Kilauea               2021-09-29 2023-09-16      717 TRUE          0
## 10 Pavlof                2021-08-05 2022-12-07      489 TRUE          2
## # ℹ 61 more rows
```
…
