Chapter 7 Intro to dplyr | STAT 240 Revamp
…
7.3 Data example

For now, we’re going to continue using the Palmer penguins dataset penguins_complete.csv as an example data frame. Let’s load the data in:

# load in the familiar penguins dataset
penguins <- read_csv(
  "https://bwu62.github.io/stat240-revamp/data/penguins_complete.csv",
  show_col_types = FALSE
)
# print the first few rows of the data frame to check
# again this data frame is too wide, and some columns are cut off
print(penguins, n = 5)

## # A tibble: 333 × 8
##   species island    bill_length_mm bill_depth_mm flipper_length_mm body_mass_g
##   <chr>   <chr>              <dbl>         <dbl>             <dbl>       <dbl>
## 1 Adelie  Torgersen           39.1          18.7               181        3750
## 2 Adelie  Torgersen           39.5          17.4               186        3800
## 3 Adelie  Torgersen           40.3          18                 195        3250
## 4 Adelie  Torgersen           36.7          19.3               193        3450
## 5 Adelie  Torgersen           39.3          20.6               190        3650
## # ℹ 328 more rows
## # ℹ 2 more variables: sex <chr>, year <dbl>
…
mutate() for both editing and adding columns, without reducing the number of rows,

summarize() for computing data summaries, often using statistical summary functions like mean, median, sd, etc. and usually results in reducing the number of rows.

7.4.1 select()

select() is used to subset columns in a data frame and is often one of the first operations used after loading in a dataset (to remove columns unnecessary for your analysis).

It has a very flexible syntax: you can use subset either by numeric position, by name, by ranges, by exlusion, or even using special selector functions. It can also be used to reorder columns. Here are a few examples:

# select just species, sex, flipper length, and body mass
penguins %>%
  select(species, sex, flipper_length_mm, body_mass_g)

## # A tibble: 333 × 4
##   species sex    flipper_length_mm body_mass_g
##   <chr>   <chr>              <dbl>       <dbl>
## 1 Adelie  male                 181        3750
## 2 Adelie  female               186        3800
## 3 Adelie  female               195        3250
## 4 Adelie  female               193        3450
## 5 Adelie  male                 190        3650
## # ℹ 328 more rows

# note this is syntactically equivalent to the following:
select(penguins, species, sex, flipper_length_mm, body_mass_g)

## # A tibble: 333 × 4
##   species sex    flipper_length_mm body_mass_g
##   <chr>   <chr>              <dbl>       <dbl>
## 1 Adelie  male                 181        3750
## 2 Adelie  female               186        3800
## 3 Adelie  female               195        3250
## 4 Adelie  female               193        3450
## 5 Adelie  male                 190        3650
## # ℹ 328 more rows

# you can also select by position, or with a range, or both
# e.g. we can select the 1st, 3rd to 5th, and year columns:
penguins %>%
  select(1, 3:5, year)

## # A tibble: 333 × 5
##   species bill_length_mm bill_depth_mm flipper_length_mm  year
##   <chr>            <dbl>         <dbl>             <dbl> <dbl>
## 1 Adelie            39.1          18.7               181  2007
## 2 Adelie            39.5          17.4               186  2007
## 3 Adelie            40.3          18                 195  2007
## 4 Adelie            36.7          19.3               193  2007
## 5 Adelie            39.3          20.6               190  2007
## # ℹ 328 more rows

# you can also use ranges with names
# e.g. select from 1st to island, then body mass to last col
penguins %>%
  select(1:island, body_mass_g:last_col())

## # A tibble: 333 × 5
##   species island    body_mass_g sex     year
##   <chr>   <chr>           <dbl> <chr>  <dbl>
## 1 Adelie  Torgersen        3750 male    2007
## 2 Adelie  Torgersen        3800 female  2007
## 3 Adelie  Torgersen        3250 female  2007
## 4 Adelie  Torgersen        3450 female  2007
## 5 Adelie  Torgersen        3650 male    2007
## # ℹ 328 more rows

# you can also select by excluding specific columns with !
# e.g. select everything except island and everything after body mass
penguins %>%
  select(-island, -(body_mass_g:last_col()), body_mass_g)

## # A tibble: 333 × 5
##   species bill_length_mm bill_depth_mm flipper_length_mm body_mass_g
##   <chr>            <dbl>         <dbl>             <dbl>       <dbl>
## 1 Adelie            39.1          18.7               181        3750
## 2 Adelie            39.5          17.4               186        3800
## 3 Adelie            40.3          18                 195        3250
## 4 Adelie            36.7          19.3               193        3450
## 5 Adelie            39.3          20.6               190        3650
## # ℹ 328 more rows

# select with selector functions, see ?starts_with help page for details,
# you can also use & as AND, | as OR, ! as NOT during selection
# e.g. get cols that start with "s", or end with "mm" or "g",
#      but do NOT contain "length" anywhere in the name
penguins %>%
  select(
    (starts_with("s") | ends_with(c("mm", "g"))) & !contains("length")
  )

## # A tibble: 333 × 4
##   species sex    bill_depth_mm body_mass_g
##   <chr>   <chr>          <dbl>       <dbl>
## 1 Adelie  male            18.7        3750
## 2 Adelie  female          17.4        3800
## 3 Adelie  female          18          3250
## 4 Adelie  female          19.3        3450
## 5 Adelie  male            20.6        3650
## # ℹ 328 more rows

# notice in all examples above, columns are always returned in order
# select() can therefore also be used to reorder columns
# e.g. move year, island, species, sex cols in front of everything else
#      (here, everything() selects all the other cols in original order)
penguins %>%
  select(year, island, species, sex, everything())

## # A tibble: 333 × 8
##    year island    species sex    bill_length_mm bill_depth_mm flipper_length_mm
##   <dbl> <chr>     <chr>   <chr>           <dbl>         <dbl>             <dbl>
## 1  2007 Torgersen Adelie  male             39.1          18.7               181
## 2  2007 Torgersen Adelie  female           39.5          17.4               186
## 3  2007 Torgersen Adelie  female           40.3          18                 195
## 4  2007 Torgersen Adelie  female           36.7          19.3               193
## 5  2007 Torgersen Adelie  male             39.3          20.6               190
## # ℹ 328 more rows
## # ℹ 1 more variable: body_mass_g <dbl>

Here it’s worth reminding that df %>% select(...) does NOT modify the original input df, instead it effectively makes a copy of df and runs on that instead. Example:

# show starting data frame
print(penguins)

## # A tibble: 333 × 8
##   species island    bill_length_mm bill_depth_mm flipper_length_mm body_mass_g
##   <chr>   <chr>              <dbl>         <dbl>             <dbl>       <dbl>
## 1 Adelie  Torgersen           39.1          18.7               181        3750
## 2 Adelie  Torgersen           39.5          17.4               186        3800
## 3 Adelie  Torgersen           40.3          18                 195        3250
## 4 Adelie  Torgersen           36.7          19.3               193        3450
## 5 Adelie  Torgersen           39.3          20.6               190        3650
## # ℹ 328 more rows
## # ℹ 2 more variables: sex <chr>, year <dbl>

# select a subset of columns
penguins %>% select(species, flipper_length_mm)

## # A tibble: 333 × 2
##   species flipper_length_mm
##   <chr>               <dbl>
## 1 Adelie                181
## 2 Adelie                186
## 3 Adelie                195
## 4 Adelie                193
## 5 Adelie                190
## # ℹ 328 more rows

# check original input is unchanged
print(penguins)

## # A tibble: 333 × 8
##   species island    bill_length_mm bill_depth_mm flipper_length_mm body_mass_g
##   <chr>   <chr>              <dbl>         <dbl>             <dbl>       <dbl>
## 1 Adelie  Torgersen           39.1          18.7               181        3750
## 2 Adelie  Torgersen           39.5          17.4               186        3800
## 3 Adelie  Torgersen           40.3          18                 195        3250
## 4 Adelie  Torgersen           36.7          19.3               193        3450
## 5 Adelie  Torgersen           39.3          20.6               190        3650
## # ℹ 328 more rows
## # ℹ 2 more variables: sex <chr>, year <dbl>

If you want to save the result of df %>% select(...) you must manually save the output with <-. In general, we always recommend saving to a NEW object instead of overwriting the original object because this is non-destructive (i.e. does not lose any data) and less likely to create code errors later on. It’s also easier to debug.

# saving to a new object with a descriptive name is ALWAYS recommended!
penguins_fewcols <- penguins %>% select(species, flipper_length_mm)
print(penguins_fewcols)

## # A tibble: 333 × 2
##   species flipper_length_mm
##   <chr>               <dbl>
## 1 Adelie                181
## 2 Adelie                186
## 3 Adelie                195
## 4 Adelie                193
## 5 Adelie                190
## # ℹ 328 more rows

# overwriting the original input is STRONGLY discouraged
# because it's destructive and often causes problems later
penguins <- penguins %>% select(species, flipper_length_mm)
print(penguins)

## # A tibble: 333 × 2
##   species flipper_length_mm
##   <chr>               <dbl>
## 1 Adelie                181
## 2 Adelie                186
## 3 Adelie                195
## 4 Adelie                193
## 5 Adelie                190
## # ℹ 328 more rows

# reload data frame since we need it for other examples
penguins <- read_csv("data/penguins_complete.csv", show_col_types = FALSE)

This note applies to all functions on this page, i.e. all of them do NOT modify the input, so desired changes must always be manually saved!

7.4.2 rename()

rename() is used to rename columns. This is another common operation right after loading a dataset. Examples:

# rename species as species_name, and island as island_name
penguins %>%
  rename(species_name = species, island_name = island)

## # A tibble: 333 × 8
##   species_name island_name bill_length_mm bill_depth_mm flipper_length_mm
##   <chr>        <chr>                <dbl>         <dbl>             <dbl>
## 1 Adelie       Torgersen             39.1          18.7               181
## 2 Adelie       Torgersen             39.5          17.4               186
## 3 Adelie       Torgersen             40.3          18                 195
## 4 Adelie       Torgersen             36.7          19.3               193
## 5 Adelie       Torgersen             39.3          20.6               190
## # ℹ 328 more rows
## # ℹ 3 more variables: body_mass_g <dbl>, sex <chr>, year <dbl>

# if you want to use irregular names, i.e. names with spaces or symbols,
# you must surround them with " " quotes
penguins %>%
  rename("Bill Length (mm)" = bill_length_mm)

## # A tibble: 333 × 8
##   species island  `Bill Length (mm)` bill_depth_mm flipper_length_mm body_mass_g
##   <chr>   <chr>                <dbl>         <dbl>             <dbl>       <dbl>
## 1 Adelie  Torger…               39.1          18.7               181        3750
## 2 Adelie  Torger…               39.5          17.4               186        3800
## 3 Adelie  Torger…               40.3          18                 195        3250
## 4 Adelie  Torger…               36.7          19.3               193        3450
## 5 Adelie  Torger…               39.3          20.6               190        3650
## # ℹ 328 more rows
## # ℹ 2 more variables: sex <chr>, year <dbl>
…
## # A tibble: 3 × 2
##       x     y
##   <int> <int>
## 1     1     4
## 2     2     5
## 3     3     6

This is outside our scope, but you can also apply a function to many/all columns using rename_with(). For example:

penguins %>%
  rename_with(toupper)

## # A tibble: 333 × 8
##   SPECIES ISLAND    BILL_LENGTH_MM BILL_DEPTH_MM FLIPPER_LENGTH_MM BODY_MASS_G
##   <chr>   <chr>              <dbl>         <dbl>             <dbl>       <dbl>
## 1 Adelie  Torgersen           39.1          18.7               181        3750
## 2 Adelie  Torgersen           39.5          17.4               186        3800
## 3 Adelie  Torgersen           40.3          18                 195        3250
## 4 Adelie  Torgersen           36.7          19.3               193        3450
## 5 Adelie  Torgersen           39.3          20.6               190        3650
## # ℹ 328 more rows
## # ℹ 2 more variables: SEX <chr>, YEAR <dbl>

7.4.3 mutate()

mutate() is used to either change an existing column, or add new columns. It’s an easy function to introduce but a tough one to master. The basic syntax is col = ... where col is the name of the column to change/add (depending on if it already exists) and ... is some R expression.

The key thing to remember is the ... expression can be any vector computation using one or more columns in the data frame that produces a vector of the same length OR a single value (which would be recycled).

For convenience, let’s select just a few columns to continue with the demonstration:

penguins2 <- penguins %>%
  select(species, sex, bill_length_mm, bill_depth_mm)
print(penguins2)

## # A tibble: 333 × 4
##   species sex    bill_length_mm bill_depth_mm
##   <chr>   <chr>           <dbl>         <dbl>
## 1 Adelie  male             39.1          18.7
## 2 Adelie  female           39.5          17.4
## 3 Adelie  female           40.3          18  
## 4 Adelie  female           36.7          19.3
## 5 Adelie  male             39.3          20.6
## # ℹ 328 more rows

Now, here’s a few example applications of mutate() using penguins2

# we can easily add columns of constants
penguins2 %>%
  mutate(study = "Palmer", century = 21, true = TRUE)

## # A tibble: 333 × 7
##   species sex    bill_length_mm bill_depth_mm study  century true 
##   <chr>   <chr>           <dbl>         <dbl> <chr>    <dbl> <lgl>
## 1 Adelie  male             39.1          18.7 Palmer      21 TRUE 
## 2 Adelie  female           39.5          17.4 Palmer      21 TRUE 
## 3 Adelie  female           40.3          18   Palmer      21 TRUE 
## 4 Adelie  female           36.7          19.3 Palmer      21 TRUE 
## 5 Adelie  male             39.3          20.6 Palmer      21 TRUE 
## # ℹ 328 more rows

# we can also change existing columns using the same syntax,
# e.g. we can capitalize and abbreviate sex to M and F
penguins2 %>%
  mutate(sex = substr(toupper(sex), 1, 1))

## # A tibble: 333 × 4
##   species sex   bill_length_mm bill_depth_mm
##   <chr>   <chr>          <dbl>         <dbl>
## 1 Adelie  M               39.1          18.7
## 2 Adelie  F               39.5          17.4
## 3 Adelie  F               40.3          18  
## 4 Adelie  F               36.7          19.3
## 5 Adelie  M               39.3          20.6
## # ℹ 328 more rows

# we can also use multiple columns in expressions
# e.g. we can roughly estimate the volume of each bill,
# see: https://allisonhorst.github.io/palmerpenguins/#bill-dimensions
penguins2 %>%
  mutate(bill_vol_mm3 = pi * (bill_depth_mm / 2)^2 * bill_length_mm)

## # A tibble: 333 × 5
##   species sex    bill_length_mm bill_depth_mm bill_vol_mm3
##   <chr>   <chr>           <dbl>         <dbl>        <dbl>
## 1 Adelie  male             39.1          18.7       10739.
## 2 Adelie  female           39.5          17.4        9393.
## 3 Adelie  female           40.3          18         10255.
## 4 Adelie  female           36.7          19.3       10737.
## 5 Adelie  male             39.3          20.6       13098.
## # ℹ 328 more rows

# you can also break this into steps, using intermediate variables
# note intermediate variables can be used immediately in the same mutate() call
penguins2 %>%
  mutate(
    bill_cross_section_mm2 = pi * (bill_depth_mm / 2)^2,
    bill_vol_mm3 = bill_cross_section_mm2 * bill_length_mm
  )

## # A tibble: 333 × 6
##   species sex   bill_length_mm bill_depth_mm bill_cross_section_mm2 bill_vol_mm3
##   <chr>   <chr>          <dbl>         <dbl>                  <dbl>        <dbl>
## 1 Adelie  male            39.1          18.7                   275.       10739.
## 2 Adelie  fema…           39.5          17.4                   238.        9393.
## 3 Adelie  fema…           40.3          18                     254.       10255.
## 4 Adelie  fema…           36.7          19.3                   293.       10737.
## 5 Adelie  male            39.3          20.6                   333.       13098.
## # ℹ 328 more rows

# you can even mix summary functions into your expression
# e.g. standardize bill length and depth by subtracting mean and dividing by sd
penguins2 %>%
  mutate(
    bill_length_std = (bill_length_mm - mean(bill_length_mm)) / sd(bill_length_mm),
    bill_depth_std = (bill_depth_mm - mean(bill_depth_mm)) / sd(bill_depth_mm)
  )

## # A tibble: 333 × 6
##   species sex    bill_length_mm bill_depth_mm bill_length_std bill_depth_std
##   <chr>   <chr>           <dbl>         <dbl>           <dbl>          <dbl>
## 1 Adelie  male             39.1          18.7          -0.895          0.780
## 2 Adelie  female           39.5          17.4          -0.822          0.119
## 3 Adelie  female           40.3          18            -0.675          0.424
## 4 Adelie  female           36.7          19.3          -1.33           1.08 
## 5 Adelie  male             39.3          20.6          -0.858          1.74 
## # ℹ 328 more rows
…
