Chapter 13 Means | STAT 240 Revamp
…
For a two-means scenario, generally our goal is to run inference on the difference of the underlying population means \(\mu_1-\mu_2\). We think of this as our parameter of interest.

For this parameter, our point estimate naturally is the difference of our sample means \(\bar x_1-\bar x_2\).

Similar to the one-mean scenario, this scenario is not sensitive to non-normality in the data, and the t-distribution will be necessary again since we estimate \(s_i\to\sigma_i\)

For an example dataset here, let’s use this dataset from Kevin Young’s 2004 Science article on the flat-tailed horned lizard. In a study, scientists collected two samples: lizards of the species who were alive, and those that were killed by loggerhead shrikes, a common predator. In each sample, lizard horn lengths were measured to see if there was evidence that longer horns provided better defense and thus chances of survival against the shrikes. The data is in lizards.tsv.

# remember to load packages and set any desired options
# read in data and summarize to groups (lengths are in mm)
lizards <- read_tsv("https://bwu62.github.io/stat240-revamp/data/lizards.tsv")
lizards

# A tibble: 184 × 2
  hornLength survival
       <dbl> <chr>   
1       25.2 Living  
2       26.9 Living  
3       26.6 Living  
4       25.6 Living  
5       25.7 Living  
# ℹ 179 more rows
…
