Chapter 12 Proportions | STAT 240 Revamp
…
Then, our models for the true distributions are \(X_1\sim\bin(n_1,p_1)\) and \(X_2\sim\bin(n_2,p_2)\).

Let \(x_1\), \(x_2\) be observed numbers of successes in our samples where \(0\le x_1\le n_1\) and \(0\le x_2\le n_2\) and define \(\hat p_1=x_1/n_1\), \(\hat p_2=x_2/n_2\) as the corresponding proportions of successes in our samples.

Again, we know from the LLN that \(\hat p_1\to p_1\) and \(\hat p_2\to p_2\) so we take \(\hat p_1\), \(\hat p_2\) as our point estimates for \(p_1\), \(p_2\).

So far it’s all pretty intuitive.

Again, let’s see all this in the context of an example. Let’s use this dataset of thoracic surgery outcomes for lung cancer patients from the Wroclaw Thoracic Surgery Centre at the University of Wroclaw. A slightly cleaned version can be found here: thoracic.csv.

# remember to load packages and set any desired options
thoracic <- read_csv("https://bwu62.github.io/stat240-revamp/data/thoracic.csv")
thoracic

# A tibble: 470 × 17
  dgn     fvc  fev1 perf  pain  haem  dysp  cough weak  size  type2dm mi6  
  <chr> <dbl> <dbl> <chr> <lgl> <lgl> <lgl> <lgl> <lgl> <chr> <lgl>   <lgl>
1 DGN2   2.88  2.16 PRZ1  FALSE FALSE FALSE TRUE  TRUE  OC14  FALSE   FALSE
2 DGN3   3.4   1.88 PRZ0  FALSE FALSE FALSE FALSE FALSE OC12  FALSE   FALSE
3 DGN3   2.76  2.08 PRZ1  FALSE FALSE FALSE TRUE  FALSE OC11  FALSE   FALSE
4 DGN3   3.68  3.04 PRZ0  FALSE FALSE FALSE FALSE FALSE OC11  FALSE   FALSE
5 DGN3   2.44  0.96 PRZ2  FALSE TRUE  FALSE TRUE  TRUE  OC11  FALSE   FALSE
# ℹ 465 more rows
# ℹ 5 more variables: pad <lgl>, smoker <lgl>, asthma <lgl>, age <dbl>,
#   survive1 <lgl>
…
