Chapter 14 Regression | STAT 240 Revamp
…
Note these are purely functions of the sample statistics \(\bar x\), \(\bar y\), \(s_x\), \(s_y\), \(r\), and straightforward to compute.

14.4 Data example

For a first data example, let’s example a historic ice cream consumption dataset provided by Kadiyala.44 The data, found in icecream.csv reports ice cream consumption per capita in pints vs mean temperature in Farenheit over a series of 4-week periods between 1951-53 in a region in Michigan.

# set comment="# to ignore description lines at top of file,
# then select main columns of interest
icecream <- read_csv("https://bwu62.github.io/stat240-revamp/data/icecream.csv",
                     comment="#") %>% select(consumption, temperature)
icecream

# A tibble: 29 × 2
  consumption temperature
        <dbl>       <dbl>
1       0.386          41
2       0.374          56
3       0.393          63
4       0.425          68
5       0.406          69
# ℹ 24 more rows
…
